{
	"variables": [],
	"info": {
		"name": "SMS-Group",
		"_postman_id": "7447eb68-e76c-e694-a7b9-017b70242d8e",
		"description": "",
		"schema": "https://schema.getpostman.com/json/collection/v2.0.0/collection.json"
	},
	"item": [
		{
			"name": "/api/records/reset",
			"request": {
				"url": "http://localhost:3000/api/records/reset",
				"method": "PUT",
				"header": [],
				"body": {},
				"description": "http://localhost:3000/api/records/reset\n\nreset the database to initial point\nseed the data with the data file"
			},
			"response": []
		},
		{
			"name": "/api/records",
			"request": {
				"url": "http://localhost:3000/api/records",
				"method": "GET",
				"header": [],
				"body": {},
				"description": "http://localhost:3000/api/records\n\nget all records\nWIP: Working on the api filter"
			},
			"response": []
		}
	]
}